First Name,Surname,Gender,Recent10kTime,Recent5kTime,Recent5mileTime,Riegel5mile,RaceWonTime,Handicap,UofG5mile,UofG5mileHandicapped
Simon,Sheridan,M,37:10,,,29:24,25:56,03:28,29:59,26:31
Graham,Andrew,M,,18:22,,30:14,25:56,04:18,30:49,26:31
Alison,Wood,F,45:38,,,36:06,25:56,10:10,36:46,26:36
Peter,Dow,M,48:35,,,38:26,25:56,12:30,39:09,26:39
Caroline,Dow,F,56:13,,,44:28,25:56,18:32,45:15,26:43
Alasdair,MacMillan,M,,16:53,,27:47,25:56,01:51,28:35,26:44
Linda,Kennedy,F,,,37:43,37:43,25:56,11:47,38:39,26:52
Ade,Kearns,M,43:03,,,34:03,25:56,08:07,35:00,26:53
Paul,O'Brien,M,,,31:04,31:04,25:56,05:08,32:23,27:15
Aileen,Wilson,F,44:33,,,35:14,25:56,09:18,36:34,27:16
John,Murray,M,38:26,,,30:24,25:56,04:28,31:50,27:22
Craig,Brown,M,43:28,,,34:23,25:56,08:27,35:52,27:25
David,Geddes,M,,,38:34,38:34,25:56,12:38,40:07,27:29
Emma,Blair,F,,20:40,,34:01,25:56,08:05,36:01,27:56
Barrie,Johnstone,M,37:30,,,29:40,25:56,03:44,32:03,28:19
David,Campbell,M,39:18,,,31:05,25:56,05:09,33:31,28:22
Allan,Wallace,M,,20:46,,34:11,25:56,08:15,36:46,28:31
Isabella,Sheldon,F,38:31,,,30:28,25:56,04:32,33:09,28:37
